// Jest Snapshot v1, https://goo.gl/fbAQLP

exports[`renders correctly 1`] = `
<View
  accessible={true}
  isTVSelectable={true}
  onResponderGrant={[Function]}
  onResponderMove={[Function]}
  onResponderRelease={[Function]}
  onResponderTerminate={[Function]}
  onResponderTerminationRequest={[Function]}
  onStartShouldSetResponder={[Function]}
  style={
    Object {
      "flexDirection": "row",
      "flexWrap": "wrap",
      "opacity": 1,
    }
  }
>
  <Text>
    <Text
      style={
        Object {
          "color": "#444",
          "fontWeight": "bold",
        }
      }
    >
      someUser
    </Text>
    <Text>
       posted in 
    </Text>
    <Text
      style={
        Object {
          "color": "#444",
          "fontWeight": "bold",
        }
      }
    >
      someGroup
    </Text>
  </Text>
</View>
`;
