{
  "project_info": {
    "project_number": "216497927604",
    "firebase_url": "https://testproyect-b002e.firebaseio.com",
    "project_id": "testproyect-b002e",
    "storage_bucket": "testproyect-b002e.appspot.com"
  },
  "client": [
    {
      "client_info": {
        "mobilesdk_app_id": "1:216497927604:android:e9dc243d6758e397",
        "android_client_info": {
          "package_name": "com.minds.mobiletest"
        }
      },
      "oauth_client": [
        {
          "client_id": "216497927604-dslu0dgqa34p7upomu9e0aqnlrkgq7ap.apps.googleusercontent.com",
          "client_type": 3
        },
        {
          "client_id": "216497927604-dslu0dgqa34p7upomu9e0aqnlrkgq7ap.apps.googleusercontent.com",
          "client_type": 3
        }
      ],
      "api_key": [
        {
          "current_key": "AIzaSyAXqcOREGAzA2BFVfl8j9bnswBzau5mReU"
        }
      ],
      "services": {
        "analytics_service": {
          "status": 1
        },
        "appinvite_service": {
          "status": 1,
          "other_platform_oauth_client": []
        },
        "ads_service": {
          "status": 2
        }
      }
    }
  ],
  "configuration_version": "1"
}